[{
	"topic": {
			"type": "select",
			"show": [0,1,2,3,4],
			"event": [{"action": "change", "function": "createForm", "params": ["lang", "this.selectedIndex"]}],
			"pl-PL": {"placeholder": "Wybierz jeden z tematów",
				"values": [
					{"id": "0", "value": "Zapytanie", "text": "Zapytanie"},
					{"id": "1", "value": "Propozycja współpracy", "text": "Propozycja współpracy"},
					{"id": "2", "value": "Zgłoszenie na kongres", "text": "Zgłoszenie na kongres"},
					{"id": "3", "value": "Wiadomość ogólna", "text": "Wiadomość ogólna"},
					{"id": "4", "value": "Kursy", "text": "Kursy"}
				],
				"tip": "Wybierz temat,w sprawie którego do nas piszesz"
			},
			"en-UK": {"placeholder": "Choose one of the following topics",
				"values": [
					{"id": "0", "value": "Zapytanie", "text": "Inquiry"},
					{"id": "1", "value": "Propozycja współpracy", "text": "Cooperation offer"},
					{"id": "2", "value": "Zgłoszenie na kongres", "text": "Application form for the congress"},
					{"id": "3", "value": "Wiadomość ogólna", "text": "General message"},
					{"id": "4", "value": "Kursy", "text": "Courses"}
				],
				"tip": "Choose topic which the best describe your message with us"
			}
	},
	"coursesTopic": {
			"type": "select",
			"show": [4],
			"default": "Szkolenie gospodarcze",
			"pl-PL": {"placeholder": "Wybierz tematykę kursu",
				"values": [
					{"id": "0", "value": "Szkolenie gospodarcze", "text": "Szkolenie gospodarcze"},
					{"id": "1", "value": "Szkolenie rachunkowe", "text": "Szkolenie rachunkowe"},
					{"id": "2", "value": "Szkolenie kadrowe", "text": "Szkolenie kadrowe"},
					{"id": "3", "value": "Zasady pracy i obowiązki kasjerów walutowo – złotowych", "text": "Zasady pracy i obowiązki kasjerów walutowo – złotowych"},
					{"id": "4", "value": "Zasady pracy i obowiązki kasjerów złotowych", "text": "Zasady pracy i obowiązki kasjerów złotowych"},
					{"id": "5", "value": "Przeciwdziałanie wprowadzaniu do obrotu finansowego wartości majątkowych pochodzących z nielegalnych lub nieujawnionych źródeł", "text": "Przeciwdziałanie wprowadzaniu do obrotu finansowego wartości majątkowych pochodzących z nielegalnych lub nieujawnionych źródeł"},
					{"id": "6", "value": "Korekty dokumentacji płacowych i konsekwencje dla rozliczeń z zakładem ubezpieczeń społecznych i urzędem skarbowym", "text": "Korekty dokumentacji płacowych i konsekwencje dla rozliczeń z zakładem ubezpieczeń społecznych i urzędem skarbowym"},
					{"id": "7", "value": "Zmiany w zasadach ustalania prawa i wypłacania zasiłków z ubezpieczenia chorobowego i wypadkowego wprowadzone od nowego roku", "text": "Zmiany w zasadach ustalania prawa i wypłacania zasiłków z ubezpieczenia chorobowego i wypadkowego wprowadzone od nowego roku"},
					{"id": "8", "value": "Zmiany w zasadach ustalania obowiązków ubezpieczeń społecznych wykonujących umowy cywilnoprawne", "text": "Zmiany w zasadach ustalania obowiązków ubezpieczeń społecznych wykonujących umowy cywilnoprawne"},
					{"id": "9", "value": "inne", "text": "inne"}
				],
				"tip": "Wybierz interesująca Cię tematykę kursu"
			},
			"en-UK": {"placeholder": "Wybierz tematykę kursu",
				"values": [
					{"id": "0", "value": "Szkolenie gospodarcze", "text": "Szkolenie gospodarcze"},
					{"id": "1", "value": "Szkolenie rachunkowe", "text": "Szkolenie rachunkowe"},
					{"id": "2", "value": "Szkolenie kadrowe", "text": "Szkolenie kadrowe"},
					{"id": "3", "value": "Zasady pracy i obowiązki kasjerów walutowo – złotowych", "text": "Zasady pracy i obowiązki kasjerów walutowo – złotowych"},
					{"id": "4", "value": "Zasady pracy i obowiązki kasjerów złotowych", "text": "Zasady pracy i obowiązki kasjerów złotowych"},
					{"id": "5", "value": "Przeciwdziałanie wprowadzaniu do obrotu finansowego wartości majątkowych pochodzących z nielegalnych lub nieujawnionych źródeł", "text": "Przeciwdziałanie wprowadzaniu do obrotu finansowego wartości majątkowych pochodzących z nielegalnych lub nieujawnionych źródeł"},
					{"id": "6", "value": "Korekty dokumentacji płacowych i konsekwencje dla rozliczeń z zakładem ubezpieczeń społecznych i urzędem skarbowym", "text": "Korekty dokumentacji płacowych i konsekwencje dla rozliczeń z zakładem ubezpieczeń społecznych i urzędem skarbowym"},
					{"id": "7", "value": "Zmiany w zasadach ustalania prawa i wypłacania zasiłków z ubezpieczenia chorobowego i wypadkowego wprowadzone od nowego roku", "text": "Zmiany w zasadach ustalania prawa i wypłacania zasiłków z ubezpieczenia chorobowego i wypadkowego wprowadzone od nowego roku"},
					{"id": "8", "value": "Zmiany w zasadach ustalania obowiązków ubezpieczeń społecznych wykonujących umowy cywilnoprawne", "text": "Zmiany w zasadach ustalania obowiązków ubezpieczeń społecznych wykonujących umowy cywilnoprawne"},
					{"id": "9", "value": "inne", "text": "inne"}
				],
				"tip": "Wybierz interesująca Cię tematykę kursu"
			}
	},
	"salutation": {
			"type": "select",
			"show": [2],
			"default": -1,
			"pl-PL": {"placeholder": "Wybierz zwrot grzecznościowy", 
				"values" : [
					{"id": "0", "value": "Pani", "text": "Pani"},
					{"id": "1", "value": "Pan", "text": "Pan"}
				],
				"tip": "Wybierz zwrot grzecznościowy, który będzie użyty m. in. na dyplomie"
			},
			"en-UK": {"placeholder": "Select salutation form",
				"values" : [
					{"id": "0", "value": "Pani", "text": "Ms."},
					{"id": "1", "value": "Mrs.", "text": "Mrs."},
					{"id": "2", "value": "Miss", "text": "Miss"},
					{"id": "3", "value": "Pan", "text": "Mr."}
				],
				"tip": "Select salutation form. We use it on diploma"
			}
	},
	"scietificDegree": {
			"type": "input",
			"subtype": "text",
			"show": [2],
			"mandatory": "mandatory",
			"pl-PL": {"placeholder": "Stpień naukowy", 
				"tip": "Prosimy wpisać swój pełny stopień naukowy (oraz techniczny). Przykładowo \"Profesor doktor habilitowany\" lub \"prof. dr hab.\""
			},
			"en-UK": {"placeholder": "Academic degree",
				"tip": "Please enter your full academic degree (and engineers too if you possess), e.g. \"Professor\", \"Doctor\", \"Doctor of Engineering\"" 
			}
	},
	"name": {
			"type": "input",
			"subtype": "text",
			"show": [0,1,2,3,4],
			"mandatory": "mandatory",
			"regexp": "^([A-ZŻŁ]{1}[a-ząćęłńóśżź]*){1}$",
			"pl-PL": {"placeholder": "Wprowadź imię", 
				"tip": "Wpisz swoje imię. Pamiętaj o dużej literze oraz o nie wprowadzaniu wielu członów (rozdzielonych spacją)",
				"titleTip": "Wprowadź poprawnie swoje imię. Pamiętaj o dużych i małych literach oraz ewentualnych spacjach przed/po imieniu."
			},
			"en-UK": {"placeholder": "Enter your first name",
				"tip": "Type your first name. Please note that you must start from capital letter and you can't entering more names (eg. separating with spaces)"
			}
	},
	"secondNames": {
			"type": "input",
			"subtype": "text",
			"show": [2],
			"pl-PL": {"placeholder": "Pozostałe imiona", 
				"tip": "Wprowadź swoje imiona (opcjonalnie)"
			},
			"en-UK": {"placeholder": "Enter your second name (or more if you like)",
				"tip": "You may type here your other names (optional filed)"
			}
	},
	"surname": {
			"type": "input",
			"subtype": "text", 
			"show": [0,1,2,3,4],
			"mandatory": "mandatory",
			"regexp": "^(([a-z]){0,4}[ ]{0,1}([A-ZŻŹŁŚ]{1}[a-ząćęłńóśżź]*[-]{0,1}[ ]{0,1}){0,3}([A-ZŻŹŁŚ]{1}[a-ząćęłńóśżź]*){1}){1}$",
			"pl-PL": {"placeholder": "Wprowadź nazwisko", 
				"tip": "Wpisz swoje nazwisko. Nazwiska wieloczłonowe łącz myślnikami.",
				"titleTip": "Wprowadź poprawnie swoje nazwisko. Pamiętaj o dużych i małych literach oraz ewentualnych myślnikach i spacjach między kolejnymi członami."
			},
			"en-UK": {"placeholder": "Enter your surname",
				"tip": "Type your surname. Please note that you must start from capital letter. If you have concaterate surname you must type it with dashes."
			}
	},
	"affiliation": {
			"type": "input",
			"subtype": "text",
			"show": [2],
			"mandatory": "mandatory",
			"pl-PL": {"placeholder": "Afiliacja", 
				"tip": "Wpisz jednostkę naukową, którą reprezentujesz"
			},
			"en-UK": {"placeholder": "Affilation",
				"tip": "Type here name of the scientific unit which you represent"
			}
	},
	"publicationTitle": {
			"type": "input",
			"subtype": "text",
			"show": [2],
			"mandatory": "mandatory",
			"pl-PL": {"placeholder": "Tytuł publikacji", 
				"tip": "Pełny tytuł publikacji"
			},
			"en-UK": {"placeholder": "Publication title",
				"tip": "Type here a full publication title"
			}
	},
	"presentationType": {
			"type": "select",
			"show": [2],
			"default": -1,
			"pl-PL": {"placeholder": "Rodzaj prezentacji", 
				"values" : [
					{"id": "0", "value": "Referat", "text": "Referat"},
					{"id": "1", "value": "Plakat", "text": "Plakat"}
				],
				"tip": "Wybierz w jaki sposób chcesz prezentować swój artykuł"
			},
			"en-UK": {"placeholder": "Presentation form",
				"values" : [
					{"id": "0", "value": "Referat", "text": "Lecture"},
					{"id": "1", "value": "Plakat", "text": "Poster"}
				],
				"tip": "Choose how do you want to present your article"
			}
	},
	"abstract": {
			"type": "textarea",
			"show": [2],
			"mandatory": "mandatory",
			"pl-PL": {"placeholder": "Streszczenie publikacji", 
				"tip": "Wpisz streszczenie Twojej publikacji"
			},
			"en-UK": {"placeholder": "Publication summary",
				"tip": "Enter your publication summary"
			}
	},
	"email": {
			"type": "input",
			"subtype": "text", 
			"show": [0,1,2,3,4],
			"mandatory":"mandatory",
			"regexp":"^([a-z0-9]{1,}|\\_{0,}|\\-{0,}|\\.{0,}|[+]{0,}){1,}\\@{1}([\\-\\_a-z0-9]*[.]{1}){1,}([a-z]{2,18}){1}$",
			"regexpParam": "i",
			"pl-PL": {"placeholder": "Wprowadź pocztę elektroniczną", 
				"tip": "Adres poczty musi zawierać znak at (@) oraz domenę serwera przyjmującego Twoją pocztę.",
				"titleTip": "Podany adres poczty jest wadliwy. Sprawdź czy został dobrze wprowadzony. Pamiętaj o małych literach! Ponadto problemem są polskie znaki w domenie."
			},
			"en-UK": {"placeholder": "Enter your e-mail",
				"tip": "E-mail must contain at sing (@) and server domain (eg. your@example.com)"
			}
	},
	"phone": {
			"type": "input",
			"subtype": "text", 
			"show": [0,1,2,3],
			"mandatory":"mandatory",
			"regexp":"^([(]{0,1}[+]{0,1}[0-9]{0,4}[)]{0,1}|[+]{0,1}[(]{0,1}[0-9]{0,4}[)]{0,1}){0,1}[ ]{0,1}(([0-9]{1,3}[-]{0,1}[ ]{0,1}){0,1}){1,2}([0-9]{3}){1}$",
			"regexpParam": "i",
			"pl-PL": {"placeholder": "Wprowadź telefon", 
				"tip": "Telefon musi być podany w jednym z ustalonych standardów, np. XXX-XXX-XXX, (XX)X XX XX XX, +(XX) XXX-XXX-XXX itd.",
				"titleTip": "Podany numer telefonu jest wadliwy. Sprawdź czy został dobrze wprowadzony.",
				"exampleTip": "np. (+00)123-456-789, 456-456-456, +00123456789"
			},
			"en-UK": {"placeholder": "Enter your phone number",
				"tip": "The phone number must be type in the one of the general standard, eg. XXX-XXX-XXX, +(XX)X XX XX XX, +(XX) XXX-XXX-XXX and so on."
			}
	},
	"fees": {
			"type": "select",
			"show": [2],
			"default": -1,
			"pl-PL": {"placeholder": "Wybierz opłatę", 
				"values" : [
					{"id": "0", "value": "Pełne zakwaterowanie", "text": "Pełne zakwaterowanie (850 zł)"},
					{"id": "1", "value": "Bez zakwaterowania", "text": "Bez zakwaterowania (700 zł)"},
					{"id": "2", "value": "rabat", "text": "rabat dla członków PTE, doktorantów (600 zł) - płatność do 10.09.2017"},
					{"id": "3", "value": "Sama publikacja", "text": "Sama publikacja - bez udziału w kongresie (200 zł)"}
				],
				"tip": "Wybrana kwota zostanie umieszczona na fakturze"
			},
			"en-UK": {"placeholder": "Choose payment kind",
				"values" : [
					{"id": "0", "value": "Pełne zakwaterowanie (200 EURO)", "text": "Full accomodation (200 EUR)"},
					{"id": "1", "value": "Bez zakwaterowania (170 EURO)", "text": "Without accomodation (170 EUR)"},
					{"id": "2", "value": "rabat (150 EURO)", "text": "rebate for PTE members and doctoral students (150 EUR) - only if payment will be before 10.09.2017"},
					{"id": "3", "value": "Sama publikacja (50 EURO)", "text": "Publication only - I'm not going to be at congress (50 EUR)"}
				],
				"tip": "Selected payment will be placed on the invoice"
			}
	},
	"taxField": {
			"type": "fieldset",
			"show": [2],
			"pl-PL": "Dane do faktury",
			"en-UK": "Invoice data fields",
			"fields": {
				"paymentUnit": {
					"type": "input",
					"subtype": "text",
					"mandatory": "mandatory",
					"pl-PL": {"placeholder": "Nazwa instytucji lub imię i nazwisko płatnika", 
						"tip": "Nazwa płatnika"
					},
					"en-UK": {"placeholder": "Institution name or payer name",
						"tip": "Payer name"
					}
				},
				"addressPrefix": {
					"type": "select",
					"default": 3,
					"pl-PL": {"placeholder": "Przedrostek adresu", 
						"values" : [
							{"id": "0", "value": "ul.", "text": "Ulica"},
							{"id": "1", "value": "pl.", "text": "Plac"},
							{"id": "2", "value": "al.", "text": "Aleja"},
							{"id": "3", "value": "", "text": "Brak (nazwa miejscowości)"}
						],
						"tip": ""
					},
					"en-UK": {"placeholder": "",
						"tip": ""
					}
				},
				"streetName": {
					"type": "input",
					"subtype": "text",
					"mandatory": "mandatory",
					"pl-PL": {"placeholder": "Nazwa ulicy", 
						"tip": "Nazwa ulicy"
					},
					"en-UK": {"placeholder": "Streer name",
						"tip": "Street name"
					}
				},
				"streetNumber": {
					"type": "input",
					"subtype": "text",
					"mandatory": "mandatory",
					"pl-PL": {"placeholder": "Numer posesji", 
						"tip": "Numer posesji\/domu"
					},
					"en-UK": {"placeholder": "Estate number",
						"tip": "E.g. Estate number, building number, home number and so on"
					}
				},
				"streetLocalNumber": {
					"type": "input",
					"subtype": "text",
					"mandatory": "mandatory",
					"pl-PL": {"placeholder": "Numer lokalu", 
						"tip": "Numer lokalu\/mieszkania"
					},
					"en-UK": {"placeholder": "Locale number",
						"tip": "E.g. flat number, room number and so on"
					}
				},
				"zipCode": {
					"type": "input",
					"subtype": "text",
					"mandatory": "mandatory",
					"pl-PL": {"placeholder": "Kod pocztowy", 
						"tip": "Kod pocztowy"
					},
					"en-UK": {"placeholder": "Postal code",
						"tip": "Postal code"
					}
				},
				"city": {
					"type": "input",
					"subtype": "text",
					"mandatory": "mandatory",
					"pl-PL": {"placeholder": "Miejscowość", 
						"tip": "Miasto, miejscowośc, wieś"
					},
					"en-UK": {"placeholder": "City",
						"tip": "E.g. City, place, village and so on"
					}
				},
				"nipPesel": {
					"type": "input",
					"subtype": "text",
					"mandatory": "mandatory",
					"pl-PL": {"placeholder": "NIP/PESEL", 
						"tip": ""
					},
					"en-UK": {"placeholder": "",
						"tip": ""
					}
				},
				"nipEU": {
					"type": "input",
					"subtype": "text",
					"mandatory": "mandatory",
					"pl-PL": {"placeholder": "", 
						"tip": ""
					},
					"en-UK": {"placeholder": "Please type your tax identity",
						"tip": "Please type your tax identity"
					}
				},
				"nipEUConfirm": {
					"type": "input",
					"subtype": "file",
					"mandatory": "mandatory",
					"pl-PL": {"placeholder": "", 
						"tip": ""
					},
					"en-UK": {"placeholder": "Attach file with your tax confirmation",
						"tip": "You must send to us your scanned tax identity confirmation"
					}
				}
			}
	},
	"message": {
			"type": "textarea", 
			"show": [0,1,2,3],
			"pl-PL": {"placeholder": "Wprowadź tekst wiadomości do nas", 
				"tip": "Pełna treśc wiadomości, którą chcesz nam przekazać. Pamiętaj iż formatowanie nie ma większego znaczenia (jeżeli chcesz zredagować większą streśc prześlij nam ją w pliku)"
			},
			"en-UK": {"placeholder": "Type your message to us",
				"tip": "Full text of your message to us. Please note that this form doesn't respect any of the formatting standards. If you want send to us longer message we suggest you that you can send to it to us as pdf or doc file."
			}
	},
	"personalData": {
			"type": "input",
			"subtype": "file", 
			"show": [2,4],
			"mandatory": "mandatory",
			"showTitle": 1,
			"pl-PL": {"placeholder": "Plik ze zgodą na przetwarzanie danych osobowych", 
				"tip": "Najlepiej jest umieścić plik zeskanowanego dokumentu w postaci PDF lub jpg"
			},
			"en-UK": {"placeholder": "File with agreement for personal data processing",
				"tip": "We prefer scanned file saved as PDF or JPEG format"
			}
	},
	"authorStatement": {
			"type": "input",
			"subtype": "file", 
			"show": [2],
			"mandatory": "mandatory",
			"showTitle": 1,
			"pl-PL": {"placeholder": "Plik oświadczenia autora publikacji", 
				"tip": "Najlepiej jest umieścić plik zeskanowanego dokumentu w postaci PDF lub jpg"
			},
			"en-UK": {"placeholder": "File with author(s) publication statement",
				"tip": "We prefer scanned file saved as PDF or JPEG format"
			}
	},
	"ghostwriting": {
			"type": "input",
			"subtype": "file", 
			"show": [2],
			"mandatory": "mandatory",
			"showTitle": 1,
			"pl-PL": {"placeholder": "Plik oświadczenia samodzielności publikacji", 
				"tip": "Najlepiej jest umieścić plik zeskanowanego dokumentu w postaci PDF lub jpg"
			},
			"en-UK": {"placeholder": "File with ghostwriting statement",
				"tip": "We prefer scanned file saved as PDF or JPEG format"
			}
	},
	"fileZip": {
			"type": "input",
			"subtype": "file", 
			"show": [0,1,3],
			"showTitle": 1,
			"pl-PL": {"placeholder": "Dołącz plik ", 
				"tip": "Możesz dołączyć dowolny plik. Pamiętaj jednak by nie był on większy niż 20 MB. Ponadto zalecamy unikać formatów zip (lepiej użyć darmowego 7zip - http://www.7-zip.org)."
			},
			"en-UK": {"placeholder": "Attach file",
				"tip": "Here you can attach file to us. The maximum safe size of file is about 20 MB. We can also suggest that if you wnat send to us zipped archive you could use for these free tool 7zip - http://www.7-zip.org. A original zip format can be blocked by antivirus protect.-"
			}
	},
	"publicationFile": {
			"type": "input",
			"subtype": "file", 
			"show": [2],
			"mandatory": "mandatory",
			"showTitle": 1,
			"pl-PL": {"placeholder": "Plik publikacji", 
				"tip": "Należy dołączyć plik zgodny z wymogami edytorskimi"
			},
			"en-UK": {"placeholder": "Publication file",
				"tip": "File must be validate with editor requirement"
			}
	},
	"agreementDataProcessing": {
		"type":"input",
		"subtype":"checkbox",
		"show": [2],
		"mandatory":"mandatory",
		"pl-PL": {"placeholder": "Wyrażam zgodę na przetwarzanie podanych przeze mnie w formularzu danych osobowych i instytucjonalnych celem ukończenia rejestracji zgłoszenia na kongres przez PTE Częstochowa", 
			"tip": "Należy zaznaczyć to pole aby można było przesłać do nas formularz zgłoszenia"
		},
		"en-UK": {"placeholder": "Publication title",
			"tip": "Type here a full publication title"
		}		
	},
	"agreementAdvertising": {
		"type":"input",
		"subtype":"checkbox",
		"show": [4],
		"mandatory":"mandatory",
		"pl-PL": {"placeholder": "Zgadzam się na przesyłanie do mnie drogą elektroniczną wiadomości promocyjnych od PTE Częstochowa", 
			"tip": "Należy zaznaczyć to pole aby można było przesłać do nas formularz zgłoszenia"
		},
		"en-UK": {"placeholder": "I hereby agree for send to me advertising and promotional offers from PTE",
			"tip": "Must be checked"
		}		
	},
	"agreementDataProcessingOrdinary": {
		"type":"input",
		"subtype":"checkbox",
		"show": [0,1,3,4],
		"mandatory":"mandatory",
		"pl-PL": {"placeholder": "Wyrażam zgodę na przetwarzanie podanych przeze mnie w formularzu danych osobowych celem późniejszego kontaktu ze strony PTE Częstochowa", 
			"tip": "Należy zaznaczyć to pole aby można było przesłać do nas formularz zgłoszenia"
		},
		"en-UK": {"placeholder": "I hereby agree that my personal data will be used for contact from PTE Czestochowa",
			"tip": "Must be checked if you want to proceed the message to us"
		}		
	}
}]